*** Life<Cell> 50x50 ***

Generation = 0, Population = 190.
--------------------0------0---------0-------0----
0------------------------------0-0--------0-------
-0-0--------0--0--------0-------------------------
-----------------0--------------------0-----------
------0-----------0-------------0---------0-------
---00----0------------0------0-0--0------------0--
-----------------0------0-------------0-----------
----0--------0-------------0--0--0----------------
----------------------------0---------0-----------
--------------------------------------------------
----------------------0------0--0------------0----
0-------0--------------------------0-----0--------
-----------------------0-0--0---------------------
-------------------------0------------------0-----
0-----------------------------0----------------0--
-----------------------------------0--------00----
--0-----0---0-----------0-------------0----0---0--
-------------0---0--------00---000---------------0
------0----------0---------00---------0-----0-----
0-------0---0--------------00---------------------
---------0-------0---------0---0-----00----0------
---0--------0-----0------------------00-0------0--
--------0---------00---------------0---0----------
-----------0---0-------0----------0---------------
-----------------------0----0-----------0---------
---------------00----0----------------------------
--------------------------------------0-----------
------------------------0-------------0----0--0---
---------------0----00-0-0-------------------0---0
------------------------0-0----------0-0----------
------0-------0------0------00-------------0------
----------------------------------0-0-------------
-----------------------0--------------------------
--------------------------------------------------
-------------0------------------------------------
----0--0-------------0-0--------------------------
0------------------------0------------------------
----------0-----------0------------0---------0----
--------------0-0---------------------------------
--------------------------------------------------
---0-------------0-------------------0------------
-----0------0---0----0----------------------------
-0---------0---------------0-----0---0------------
------------------------0--------0--------0-0-----
---------0---------------------0---------------0--
--------0-----------------0----------------0------
-0-----------------------------------0--0---------
-----0-0-------------0---------------0------------
--0--------------0----------------0--0------------
-0-----0-------0------0---0---0----------00-------

Generation = 10, Population = 1062.
---1----0--*-*0*.00.--0*.-0.-...**-1--.1--.***0---
01..1-0.--0.0*11011--..***0*-.-11--**.-.1-.---...*
1-*.**..*10*...***-..-1.-.-.**1-*-00-00*0-*--0-.-0
.-0.*--.1.1.0--.**0*---101*-1*0...-1**--10**--1*0-
**.-.*-11.-10-*--1-.**.1-.-*-0-0**.--*.*11..--1.--
0-.*.-*.*..**11.-.-1....-..-*1..--*1*-.--1--.0----
1*---*..11--1...1.****.*1-.1.01*-0.--*-1-1-1*.*.-0
------.-.*-*.----01*-**..*10...--1..**.-...-*-10-1
--**11-0.----11*-..*00*-*.*1...---..00*10*-10*1.-1
.-1..1*-1--10--0-1--1110-.-.0--..-.-.-.--*01*-*.1.
**--1101-0--.0-*...-0*-.*.*-*-1...0.-1*-*---0*-.10
.0**-1.10*-.-*.--.-.11.1**01.-*.-**--0-0.-.-.*.-01
-*.**0.1*.--1-*--.*-*...1*..*---*1010**1---*-**00.
1-0-.0-0-.11*-011..*-*0--.-.*1-11***10--..-1.-1-**
-1*1--*-.1-1.1--.*-0-**10*10*-1*.1-10--1--*.*.0-*.
----00.-----.--10.----.1-*----1.0*0*.0--.*.*.*.-.*
------0-.-*1*-10-.-*--1*-*......**.--..-..-..*--.*
1--0-*.1....-1.01**1-1..*.*.-1*....-*...*--1..11-.
*-.11-1-.1.0*-0..**.-*-..1-.1*-.-..*..0**.0.*1...*
*11.--....-*0-*.*.0.-10*0.-.....-...-.**-00...*-.0
*-...-**.-...-*-1.-.-*-0..-**--.*.--.-*...*..*1--1
-*.--.*1..-.....*.--.0-.1-.*.--.-....0.--**.-*-..-
---1-0010.-.---*0-*.-*1...001*.*---*-.-..**1.---1-
-0-.-0-*.11..1-***1*-.-1.1-..*..011-..-**0.-1.-*1-
0-10001**1-*.*-0**1.-..*--..-0-*.*-**1**.1--0*-1-1
1--0000-11-011*.****..0.0...--1.-*.01-.-.--*-*.*-.
1-0-1------.0.*.*.*-1*1------.*00****--.1-1*0*-*00
*--1-1-0*-1.-01...--1.-**0***-0-**.--..*-.-.*-0*-.
--0--0-.*00--.*1*.-.**0-*.-..**.-1**--.0.--.0****0
00--*0-1--11-.*.---1*...0--1.-.*0.1-.*.*0.1-0.-.--
--01.--001--**..*.*1**-0.*-.**..0-..-*1*1.-0--0-10
---1-*-0-0*1---001*--.*---1---*0.-*--1.-11.-.--0--
1-111-*00-------.--.--.*110*..--*11----.*-0------0
--1---0.000*.-1--.1.-1...-*-11110*1-------000-.---
-.**0*.-.*-.--10.1***--.*..0*..--.1-1.-------0-0-1
*-1.-...*.---.-*---0***.1.*-1-1.-..-11.--*.-.1100-
*0...*.--*..*-*0-.11.--.-0-0111.01011.0.-----1-*--
00--.....11**1-1-.....*..1-*11-000001.1--01*1--.11
...1.01.-**1.*--.-...-.-.--0**--1.1-.....-1------0
1**----11-*-.10-.-0*.....--0-0-0--01*11**-0**.*---
--*-1*0.1.-.*.*--1.--.0.--0--.*1-..*1-00*---11-0--
-01.0--*.**-1-*0-*..*.*..-.*0.-*-.--001-1-.*-.*.1-
01011**.100-.**0.*-.-1*.1.10-.-.-.---1.-1..-**----
-*-11--1-1----1.01-...*----11-.*01-.***0..-.-.--.-
*.-..------001.-11---*.-1-01--10*--*.1-..*1.0**.01
0-.*.*----1---...0*0----**1--1-11.*1...1-*.-.-.-*.
*-.--*.-.**1--0.*-0--**-1.-1--.*-0-1-..1*.-1.-0*1-
1.*.*.--..-.*0*.*...0*..*0.*-*.---.0-..**-**..-*--
*..00.-*---*---.-.-.-**-01-10*-*.*..1.1-1-*--.---1
0**.-0--*01010*.***-*1..0.1-01*1-0.0-.-1....**.-*-

Generation = 20, Population = 879.
..-.-....-..-....-****-..*-*......-.-**.-.***.***.
-......*..*....-..*.*.**......1..1-...***-.*.-*.*.
.....**.*--...*...........**.**.....11*.**..-0....
.*...-***..*..-*..0*.*1.-...-.........1-*..*......
....***..**...*-*.*.....**...-...............*...*
-.......*....**.*.*......*.*....-.....*.....*.1-*.
.*-*.....1--..*.*........*.**....-....--**..*....*
.-*...*-..-....*.*..-....***..**.......1..*.*.*.-.
-1..1..-*-0....*-.**.0.-*.*...*1...*-...**.*1*..1.
.1........*...0.*.0.*...*.-...*..-...*.-*....*....
.....-.1*.--.**.......*.........*.*..-*.*...*.-...
*1.****..*-.*..*..-..*.***...1*.*.*0.01.**.-*.**-.
1*.****..*--.**.....**..1**..*--**-******-*..*.1..
.0--....-*.....**.****0*1*.......*..*.*.....**.-.*
-...***-..........*..***-*.*..1..*-..**.-1...*...*
*.-0*..1-1*-*.-..**--...1*.*.0..-.0..*-.*....*...*
*1.*-..1..**.....*0.**....***.**...-.*.1..1...-*.*
.***-..-.....***..*......**..***.....*....-*....**
..*.*--*...-.*.**...-.*.***..**.......1*.*..*...**
.-*.-1*****....**.*...-...1...*..*****.*1*-.....**
.0.....*....**.**..***..*....**.*.**........*.....
.*..*.......*..**.*-.***.....0-**....**.....*.*..-
--.1.*.1*.-..-***1*.-*....-.-.....**-.*......*...*
1.-**...*.*....**...***.**-.....1*.*.*...**-*.-..*
.**1...*.*.*.*0**.**1*.*.**...**..*...****.***--..
.*.*.*.*.-1-......*...*.-.***-..**********.*..**0.
1.-*.-*.-.....*...****--***......****.*..1**-..***
***.*.**......*.****.**...*...*1..*-*.*..*1*.-..*.
..1---0*.....**-..***...****...**-.*-.*..**.*.....
.*1***.*......*.*-***..**-.*.-..0**.*.*.1**.-.-..-
...1****0*--**...**....1.........**.**....*1-*....
.-.-.*.*....0***.....*.....--...*..-*..1..*.**--*-
1...*-..-..11...**..*...-.....-.**.....**1.**.11--
.*1..*..-*-.*-..1...****.*..*....*.**.-.*.*0....*.
...*....*..*0-..**..*--*....***1..*..****0-.*-...1
.*.......*..-....1*.***.....****-.*.****0.*.**.-..
.-.*.*.0.....*.*.*..*.-*1-11****0***....1...0.**..
1..0**...*...*..**..*....*.**..1.*-*...**....11...
.*.-.*...*.*..-..*...1..**-****..**1**..**...-..-.
****....-*.*...*.-..*....-1.-*..--...*..*.........
.-*...*..**.........*...*-1*-**..**..1..*1.-....-.
.-.*.-**.***...***..........****..*.....*..*-*.**1
...........*..*.**...........*-*.*.*.*.....0.***-.
1...*.1*..**1**...-*....*-****...*.*...**....*1*.*
*.*...*1....-.*.*****.....-..-..*0*.....**..-...*.
0**.....-...-.*..**.1......*..-.*.....**-..-*1.**.
.1.1...1***...*....0**..**-.-*...-.-*.**..***.**..
-..**.1-**..*0*****....**1.*0*.-1.............1***
....*.-.*-.**...-.*.-*....-..*.......**...**.*.0..
-....1*.....1........1..**.--*.-.*.-.**.**...*.-..

*** Life<Cell> 75x75 ***

Generation = 0, Population = 198.
---------------------------------------------------------------------------
------------------------------------------0----0---------------------------
-------0-----------------------------------------------0--------------0----
-0---0-------0--------------00--0--0----------------------------------0----
------------------------------------------0---------------------------0----
-----------------------------------------------------0---------------------
------------------------------------------------0--------------------------
----------------------------------------------0---------------------0------
---------------------0---------0---------------------------------0---------
----------------------------------0----------------------------------------
0-------------------------0--------------------0---------------------------
-------0--0----------------------0------------0-----------------0-0--------
----------------------------------------------------------0----------------
----------------------0----------------------------------------------------
---------0-----------------00-0--------------------------------------------
---------------------------0----------0------------0-------------0---------
--------------------------------------------0---------------------0-----0--
----0-----------------------------------------------------------00---------
---0----0------------------0-0--------------0-----0------------------------
-----------------------------------------0-------------0-----------------0-
-0------------------------------------------------------------0-----------0
---------0---0---------0---------------------------------------------------
------------------------------0--------------------------------------------
---------------0----0------------------------------------------------------
--------------------------0---0----0----------0--------------------0-------
-------------------------------------------0----------0--------------------
----------------0------------------0-------------00-----------------0------
------------------------0--------------------------------------------------
---------------------------0----------0-----0------------------------------
-----0----------0--------0----------------0--------------------------------
----------0----------------------------------------------------------------
------------------------------------0----------------------------0---------
--------------00-------------0-----0---------------------------------------
---------0---0------------------------------------0------------------------
--0---0--------------------------------0--------------------------0--------
--0-------------------------------0--------0-----------------------------0-
-------0----------0------------0-------------------------------00----------
-------------------------------0---0---------------------------------------
---------------------------0----------------------0--0---------------------
-----------------------------------0------------00-0---------------------0-
------------------------------------------------------0-------0------------
---------------------------------------------------0--------------------0--
-----------0---------------------------------------0-----------------------
---------------------------------------------------------------------------
---------------0--------------------------0--------------------------------
---------0-----------------------------0-----------------------------------
----------------------------------------------------------------------0----
---------------0-0----------------0--------------------0-----------0-------
---------------------------------------------------------------------------
---------0----------------------------0------------------------------------
-----------------------------------0---------------------------------------
--------------------------------------0--------0------0--------------0-----
---------------------------------0--------------------0--------------------
---------------0-------0---------------------------------------------------
---------------------0---------------------------------------0-------------
-----------------0-----------------0---------------------------------------
------------------------------------------------------------------------0--
-------0-------0------------------0-----------------------------0---------0
----0------------------------------------------------------0---------------
---------------------------------0------------------------0----------------
-0---------------------------------------------0-0----------------------0--
-------------------------------00------------------------------------------
-------------------------0-----------------------------------------------0-
---------------------------------------------------------------------0-----
------0-----------0--------------------------------------------------------
-----------------------------------------------------------0------------0--
----------------0----------------------------------------------------------
-0-----------0-----------------------------------0-----------------0-------
-----------------------------------------------0---------------------0----0
------------------0-------0------------0--------------------------0--------
----------------------------0----0-----------0-----------------------------
-----------------------------------0----------0--------0--0----------------
--------------------------0------------------------------------------------
---0-------------------------------------------------0----00---0-----------
---------------------------------------------------------------------------

Generation = 10, Population = 2142.
0-----01-------0---0-0-0-00-----1-0-----01.11-11.-0*1.0-------0-----01*10--
-0-1--111-0---------0----*.01-00*---0011-*1.11.1.00*-1---0----1---1---.---.
--1-**-.011--0---0---0---00*0--*1-.*1---1-..---111**1*0-0-0-011.1-*1--**..1
---*-.0.*-0-0-----0---1-.*.***11...-1-0-**.0*1.*.01.-.-0----010---*-*1.-*0-
0---11**-0-----0--------11--01-.--1--0---01-00.-10*----*------*--*.-.**--**
---0-10.010-------------01011*0--...1----1-0.-..-*.10--.---11-00-0*--1.--1*
-----.-*-.-0-0---------0--11.10*0-1.--11---0*-..-*-10*.11*----0--**--*0.--1
-----**.-.-*.---------1--0-01.*1.*1..--0.-.---.-*.10*1*-1-0--1001011-0.-1-*
---0-00*-------1--0--0-.-.-1*.1-..-.0-1100*-.*-1*-----10*--*----10-1.1.1.*-
-0---*-10-110*-0--1-----11*.101--.*11.-0-----0*-0--0---10-0-1-11-0-011*011-
----0-.--.1.0---0---0.-0-0-1--..0-.110*111--.-.---.*0*---0---1.-010--*.1011
1-*--*--...*..-111--0-.---**-0..--...***-00----0-*-1.-.-.0*-.-.*-*-----1.*1
-*-.--0-11-------0100-.---1-*10*.-.-0--000.-.-.--1..-1--------.*-**.--.0--*
-01--0-.0*1--*-10-0110-.-1***.11-..-0-100--0---.-0----1-0000--1..--*------1
-0-0-----01----1-000-0.---.*.*.-.1*-00-1-1-1-.1-0*000-----0-0-10**.-0-1----
--00-.1*..000-1---11**-.--*.0-0.-*-.-01**..1-.*0-0---0001--.......--*--010-
-0-0---...1-1----0-10*1----**..1-1.-.--0.1*00-01-0--0-1-1-11.*1*.---.1.---0
1-.-0-*1*-----00---1-*1***1.-*-*1*--0*1-0*-1-1*1-1--0-10*.-*..1.1.1.---*-*0
-0---*-.1**.-----0--0*-.-1-.*-11--1-.0.-11*--00*01*0--1-1--0---*1---*-0---0
-001*.0-1------0001.1---*.1-0*---011**...-1011.00*00--.-00-0.*0...--10-000-
-----.-10.1-----*--01-11-1.-1**.1-*0-*--------11--100-.-1-0--1-11*0---1-0--
---0-1.---1-001...-**.*-01*.1*-1000-11--0-1-1-00-01----.-----00-**.--1-----
-----0-11--11--1.1.-10--1.--.-.0****--1-00------01..0-0---10---0-*--*-0-0--
-0--00----1---0*.-.*0-*1--1.---*-0---0101-*------1*-*0--------0---0---1*---
--00--0--10-10-.--1---11-.....**-.0.--.*...--*-*.-..-*0-0-1-1.---1-1.1*01--
------1-----1--.1*01-0-.-*-*01*--*1---1*.1.-.1-1...*1-000---*-00*.0-0-1----
0--*-1-10---100-.-*010-1-.1-1-1*-.0-11.*--.-0..-.*....*--..-1--.-0..0.-*---
01------0--0---**------*11.1-1--1---110*1-**-0001---1-.*-1----1---1*-------
--1--01--111*..-*0-1*.1*-**.0-*-1*1..-.0.-.1*-*0**.*.-11-00--1*0.....0--0--
1.1---00-.*-**.---**--.*..0*-*---..-*011-*-..-..0-.----0-0------110-0------
--111-0------*-1**011-0*010*--.10-----.1011-.1.*1--.--10-------1----------0
....1011000--1--*--1.-*-1-0-.------1-1.*0--.**-1--*--110--10-0-*-0------0--
.1.00---*-***.*.*.-0-*-.-.*1-10.--*---..-1-.111-1*--01.-0-1--.-*..--10----0
--.1*0*.1-0--**.-..*-*--*1110-.---..*-.*011.--1-0*001----1----01-----00---1
*-**-1.*1-0-0--*01---100---00-0--1*.*1-1-.01.-----*01-**0-.11--.0-01--00--0
..--0-.0-1-0---*---0-00-01-*-01..1-.*-*....1---*0..*0--1--------11-0---*---
-..1-..-0.--0-011*-0--0*--1--.0*1**1--1-0-0*0101-..0..--*-********0-11-.1--
1-.---.-*1-0-0--.10--0---*1.0***1-..-.1.-*.-*1.--**..0*-1-10---0-.-----000-
0-.1---1-*--0.0--1---1.--*-*1.1.01-.*.-110--*-*-.*...-..0-0-----*1--0-.1*-0
-0--001--------*01-1---0---0**..*1-*11--.-0.-*1*-**-*.*-1*-011----101.0..**
0-.0-1*0--0101*0-----------*--0*-.-0-0-0-1--*-0---0.**-*-0-0-1....11.0.*-10
--*---1----1-0-0-----------0001.10*--------.-11**--..-0-00-*-0--0--.-**0-..
01---*--0.-.11**-*---0-0-----1-.-11.--------1-11-*...0*-00---0-0-1.-*1*00*-
01--0----*-.-*0*0-0.0--1---------...--*--0-*-0.01*0.-1-*0--1-------0-.1-*..
--10--001.....-1-.-------0-0-0--0***-1.01--1-----0-.-*-*1--0-----1---------
--10---0-10*0--.-.-.-*-*--0----1-...-1..1100-0-010-*-.-----0---1-----1-.-..
--------0.-.1--*0--1-----1---0-0--1.01.-0-*-----10-----00--11.*---------.1-
-----0---.-.*001-*-1-*--0*-00-0--0-.--*101.*00--01-..*.*1-------10-----1*.-
----0----1---1-------.-------------0--0-0-.01----10.0-*----1011-1-----0-*-1
---0-0-0--0*00-*-.-1-0-0-00-0-0--11.-----...11-1----00*.1001-0-*--0---0-*-0
-10---0--0---0-1-----1-.-----0-----0-----*--1010--.1*-.1*01--1------------0
-1-------0-------1--1.1*----0101---1-.-11....-1-0.1....-*-.----1-------0-**
---00------0---.-0-1-1---.-*-----1----00-1---1-*1--0.1.---**1---0----0--10-
-----0-0---0-11.1.1.0.*0-.001.1*0*11-0---1--------1*-0.*0----01----0-110*--
-1----0----0---1--0--0-.--0*1*---10*1-11-0----0.-0-0-**-1-----0-0--*1--1001
-------0---0-1-.-1-11.1*-00.--*--...-..*.11------1--11.0-0-0-----0100-*-10.
--0-1---0---00-------.1--1---0--0-.1-0.0----0-0.0-01-0-*1-----0---111--*..*
-1-----0---0---0-----.--1*-10-..*.*.*----1-100----0------11--0--1-.-.---.-.
1--------10--------.---1------10-.1-0--0-1----0101---010-0-------0-.--0*--1
---------1-0---0--0-----1-1-11*-.-..*0.--.10-0--0*-0--.----0----11*.-..1.0.
----1***1--00---00---0----0-0-10-..0-0-1-*-0-----*-001-*01-.-10---11-*01..*
-1---*----------1---0----1*..1.--0***-10-00---0100----11--*------*.1-......
0---0.0--00---01-----1*----.-----00---00-0-0---01.1---01-1-.1.1-10-...--*.*
-.-----0-------0-.10--0-0--111*1.*--10--0---0--**.*10--.*1.-**--*-00..-1-.-
1--.------------01---1--0---1-1-*-1-0--------1-.*.*-0------*-1--0----1.-.-*
-0-1---------0---.---0------1-11--.-0----0---1*-1*00-0--0-.1101*.1*.-1.1.*.
0*1-----------0-0-----0---0-----0-1-0--0-----*1-0*0----001-----00.-.1*-*-*.
----------10----1111---0--1----1-1-1---1--1-**.*0-.*--0-...0--*0**.-0.1----
---10---0-----00*0*-0---0-1----0-**-1-----1---00..1-0----1*-10---1..1-*.1*.
-1---0--01--0.-1*..110-----0*-.-.00.-.1-0.**-1-11.*0--*-100.0....*0.--.*.-0
-0----0-------.0*0----0-1-----1..--...-11-01-0-00.11-*1---.---0011-0--.-.*0
----------00---110--------.*--*--.*.0.-*1-0.10-..--*-.*-..-..*-.--.*----1-0
----0---0-----------1----1.--*1-1-1--1---0-0-------10**-*-*-*-1--0*-0---100
-0---0---0---0--*---1--0-1*-11--100---1--0-0-.1*01.-....1-.*..*10..*.--..11
------0-------0-1-1-----1-1--0------0----------1---10.-1-1.*-1---0-11.-11--

Generation = 20, Population = 2077.
.-1--..1*-.--*-00-10*-**1.--*******.-**-1.**.-.-.1-**.1..1******1*.*..*-.*.
..*...*.*1...-*1-*0.111....**....-.1-0.**.**.....1..1*1.-0-..0........**..*
.-****0.*..--..*-0-.-..*-.-***.*..*..-.......*..-.***..*.--*-*..*-.**..*.**
--.......-1..*10-0*1-...**...**-..*......***.***....1.*.*..*....*1*.*..*..*
......*.-...*-.-----......-.**..*.1..**.*-..1..*.....1-..1*.*..*-..-.*..*..
11.-.*-***.01****-.*..-.....**1..*.*.11.*.*...........-*..-..*.-...**..-.**
-****.**0...0-.-.*.**...-.-.**-.10*.*-...-*-....1........*..**1*-..0....*1*
-.*.**....-...1..1.-.*.-*.........***.0*.0.-...-...*...*..0*...-*...**..*1*
*...*.-...1-..*..*.....*-...**.1..-**0**1.*....*...--*.*..1.*...*...*.....-
-1..-.........**-0.----1.*.*-**.**....*-*--**.*...**11**1..**.....*-**.-...
...*-.*...**....-....**1*.*.1......-..**...-.....-*....*0****....*.....*.-.
..*.1...*.*.......1.--..0...*1*..*........*-.**..*-....-.-.*....0*-..*.**..
1*.*..-.*.*111.0*...*-.**.*1..*...*..-*-**...*.*......--*.1-*.......*....1.
0*....*.-.*1....*....*-.......*.*..*.**11.**-*-****.*1*..1..-....*-.0..*-**
..*..-***-..-.0..*-*-1**1......**..*00****.*......-...01-..*-.*-..*....-...
1*..*......1.****11***.**...-........1*......**.**-0...-.-..**..*.*..*-*..-
.***....**.-...1..-..*.1.**.*....**........1*.1*.1..**...-...*.**1.*...-..*
*.*..*.-.11-*....*1.*..*...*..-..**..*..-.-.....-..-***....**....*.*0...-.*
*.*...*......-.1......**.........*.*.0*.1...-....*..*-.*...***.*.-*.*1*0.-.
*.**..-..-...1.......1.**.*..*0*-*.*....*1***.....1..*..*...*****.-**.-.1*-
1..--*.....*.....*.-.-.**..........--...**--...**-**-**.*--...-*.*.*--.-..*
...-*..1-1**.1.........-......1*****.1**.*.**..1*0..--1..1-01-.-.***1*.*.-*
*--*.....***.*.....*.*-1.**..-.*...******-.-*-..**..*-*00..**..*..--**.*..-
0--*.-...-*-1*...*..-..*--*..11*-**.1****-.-**1.*....0..1..---.0.*.0.0..-..
*.1*---.**1**.**11*..0.**.*...**..-.**..**....-..0*.*.*....***-*.*.*..*-..*
*.*1-**1*....**...-11.....-.*..*..*.*...*1....-.....*1*.....*.*...-*.*.*.*1
....-..*..1-*-*......0.....*...........*....0***.*.*..**.*.-*-*.0-........*
*.*-1.*-..-..**.**....-.....*..**0..*.-.*...1*.-**.**..*-.01*.*-.***..1-*-.
...*.****....**....***..-....-..1..**-.-.****.*.*****...*..-..**..*...*.*1.
**...1**...*...-**....**......**-*.1*1....**..*....0*--...-.-...***.-1*-11.
*--.1**.1-..*****..1..*.*1*...*..-0*.1...*...****....*1.-10..****.1..-0..0*
.***.0****..*....*-.*.....-*.1.**-**1*..*.-.**..*-.-*..-1-**.-.*01....--*-1
..**....*-.**...**.-*..*..**..*.*1*.1**..**.-.*.*.--****.-.***.***-*.......
*..*....***0...**.*.1.1.*.*.-..-**...-*.*.........-*.-*.0*1-..-.-.00.1.-.-.
*.*.-....*.**...1..-...1.-*..1..*.*...-.*.0**....*.1.-*****.**.*-*.*.-.....
*..1..*....*0-..*1.*....-.*.......*....*...**....*..1***.**--***......0..*.
.*....**-.*..........--***........*.-0**..**.*1**.*.**.1.-.*.**.*.....1.**.
**.-..*1*.0*.*..*.*-...**...........**.*-...**..-.**.....1.*.*..*.*--.....*
*0.....**.*1..*-01**-**......*......**-.--....***...*0..1*-.-*.-..-....*.-*
**.0..1*-.*-*.-.0**.**1.....***..--..-*.*...-.....**...***10**..*..*.*0...*
-.....*-1**.*.*****-00..1*.**-.*...1.*--..*..*1...**.**.**..-***.*..**...*.
1*..1-**1...-11*...110-.*-.1*.-....--*1--11.-..*.-.*.1-.*...*0.1.*....*-...
-1-.*.*...-.*...-.*-.*0.0-**0.-..*....*.....-***-*....*-*..--**..*.1*****.1
**.--..*-**.1.**..1..1-...-*.*0...*..-.*---.1..****.*11.*1.*---.-1.-**...**
-11*...-........-.---.1---..-*****.....1*0....1.*1...*.**....--**.0..1....0
*-.**.**1.-...0*.......*1.0...*..*..*....11..-1.**....1*-*1.*.-*.*---*.***.
-*..*-01***..-*....*..1*-.-10-.**.1.*.*.1.*...-**-*.0-*.-.-.*.*.*-*-.....-.
1.**-.**......--.**.*..*****...*.0.*.*.***...*-*-.*.**...*-.-.-..-..-1**..-
.0*-***.*-1...0.-.*.-.-..-*0..-.-***-***.1.**---***.-**-.*.**.*1.---1....0.
1.*1*--...........*...-0*.......-...1**1........-.-.**..**...1..1.*.*...*-*
..*.0-0-..-...-..-*-1...*1-...1.-.1.*.-.-.....*.***...........-*..*....1-*-
..*.*10*0*.*--1.-*.*1...-0.......*-.-.-.....*.*..*...*.....-*...-...-11...*
..-**-.1-.*..*.*.-.*-.**..0*1---..-....*..*1.*...***...*1**...*-.*....*--..
-..--.-....-..*.....*..-..1**.....*...-.*..--*..-*...*.***1....*.*....-*..-
1...*-0--*.-*.0..-.**0-.**..*..--1*......-....0.****...0.**...-.*....-..*..
1***--*-1.0..**.-.-**..****.*-*..***.....*.-**0.*.*..*.**..*0-.*....-**..-.
-*-*.....**--1..0.*1...*....*--....*1....0.-*.**.*-....*****..1-.--.*-*..*.
0.**-...0.-..*1-1*-.-*.*.*-..-.....*.*---*1.*.*.*.-10**01..*.1....*-***....
...1-.1*-...*1-*--..--..**..1**.**.-1.0.0.--*-..*.-1..****.***.*1--..-*..1*
1*..-.....1-1--.-..1-*0..1.0.-..*0**.*.*-..-.1..*...11.*.-*.*1-..*.****-.*.
1.-*....*.-.*.-.0*01..*...--****.*....-..*.*-..*-**-..1*1.*.**......0..1..*
***.....*.**-..-*...1-1-**...*..*.*.....*..-.-.....*-....**.*-.*-...*...*.*
...1-.--1.*.1.1*....-...-**.-.*....**.*0*.*--.1**..*..-.-.-..*.**--.......*
..**..-1**.-.-.-.....1.-.0.*.....*.1..1...-*-0*.....-.-.*....**...**.**.**.
.....--.---1-..1**1-..-..*.-*.****.01.-.1..**.1.*..-.-.*-....*.**1-*1......
*.*---0*--.**--.1*-1-..-**-...**.-*.*.1.1-*.**....**1.*1.*..-*.***.*1.***..
*..11.*0.*.*-1.*..*..-**0.***01.-**1*.**..*.-.*...*1..*.*..-.**-0..*-...-..
-.1*--1..*...1.-*.*.*..1..**.-.*.........1.-*....0..*.....*01**.....1.*-.*.
....****11*0.-*-*.****.....1.--.**.*....*0.*1..**..-*.1-***--**...*..0***..
..0-.-11-**.1.****.*.*-*11*1....*--*1*.-*..*1......-.**..*0.......1...**.1-
-1-0-11-*1--1..1*1-..0.....1.*....-.*.-**..*1...0..*...**0*...-0..*.-*.***.
0*-00-*--*-.-....1.1.-*.***...**.**.......*..***..*.-.**.......*-...1*.-.*1
****1---*-.1*-...--*.*0***.0.....1.-.1000.*-1.**0.-.-..*...0.-.-...11*-....
**0*1001-1.*.*...***.*.1*1...*****....**-*...**.**..**......*.*.......0....
-.***1---..1--1**.--*-*-......-.-*-11.**0*.******-..**.**...*..***-.*....1-

*** Life<Cell> 100x100 ***

Generation = 0, Population = 197.
----------------------------0------------------0---------------------------------------------0------
-------------------------------------0----------------------------------------------0-0----0--------
-0----------------------------------------------------0---------------------------------------------
----------------0----------0---------------------------------------------0--------------------------
--------------0--------------00---------------------0-----------------------------------------------
--0------------------------------------0------------------------------------------------------------
------------------------------0---------------------------------------------------------------------
---------------------------0-------------0-----------------0--------------------------------0----0--
----------------------------------------------------------------------------------------------------
--0------------------------------------0------------------------------------------------------------
-----0--------------------------------0----------------------------------------0-0-----------0------
----------0------------------------------------------------------------0----------------------------
----------------------------------------------------------------------------------------------------
--------------------------------------------------------------0----0--------------------------------
----------------------------0------------------------------------------------------0----------------
0-------------------------------------------------------------------------------------------------0-
-----------------0----------------------------------------------0-----------------------------------
-----------------------------------------0---------------------------0-------------------0----------
----------------------------------------------------------0-----------0-----------------------------
--------------------0----------------------------------------------------------------0--------------
--------------------0-------------0-------------------------------------------0---------------------
---------------------------------------------------------------------------------------------0---0--
-------------------------0---------------------------------------------------0----------------------
-----0--------------------------0-----0---------------------0---------------------------------------
------------------------------------------------0---------------------------------------------------
----------0-------------------0---------------------------------------------------------------------
---------------------------------0------------------------------------------------------------------
---------------------------------------------0----------------------0-------------0-----------------
----------------------------------------------------------------------------------------------------
-------------------------------------------------------------------------------0---0----------------
-----------------------------0----------------------------------------------------------------------
-------------0---------------------------------------0------------------------------0---------------
--------------------------------------------------------------------------------------------0-------
---------------------------------0-----0----------0------------------0------------------------------
-----------------0-0-0-------------------------------------------------------0---------0------------
----------------------------------------------------------------------------------------------------
------------------0-----------------------------------------------------------------------0---------
-------------------------------------------------------0-------------------------------0-----0-----0
------------------0---------------------------------------------------------------------------------
----------------------------------------------------------------------------------------------------
----------------------------------------------------------------------0-----------------------------
-------------------------0-----------------------------------------------------------------0--------
----------------------------------------------------------------------------------------------------
--------------------------------------------------------0-------0----0------------------------------
----------------------------------------0-----------------------------------------------------------
-----------------------0----------------------------------------------------------0-----------------
-------------------------------------------------------0--------------------------------------------
--------------------------------------------------0-----------------0-------------------------------
----------------------------------------------------------------------------0-----------------------
------------------------------------0------------------------------------0--------------------------
----------------------------------------------------0-----------------------------------------------
----------------0-------------------------0------------------------------------0--------------------
-------------------------------0----------------------------------0---------------------------------
--------------------------------------------------------------------------------0-----------------0-
------------------------------------------------------0-----0---------------------------------------
--------------------------------------------------------------0-------------------------------------
-------------------------------------------------------------0------------0------------0------------
----------------0----------------------------0---------------------------0--------------------------
----------------------------------------------------0-----------------------------------------------
-------------------------------------------------------------------------------------------------0--
--------------------------------------------------------------------------0-------------------------
-----0---------------------------------0---------0--------------------------------------------------
-------------------------------0--------------------------------------------------------------------
------------------------------------0---------------------------------------------------------------
----------------------------------------------------------------------------------------------------
-------------------------------------0----------0---------------------------0-----------------0-----
------------------------------------------------0---------------------------------------------------
----------------------------------------------------------------------0------0----------------------
------------0---------------------------------------------------------------------------------------
----0--------0-----------------------------------------------------------------------------0--------
0------------0---------------------------------------0-------0----------------------0---------------
--------------0-0--------0--------------------0--------------------------0--------------------------
------------------------------0---------------------------------------------------------------------
----------------------------------------------------------------------------------0-----------------
-------------------------------------------------------------------------------0--------------------
-------------------------------------------------------------------0--------------------------------
---------------------------------------------------------------------------00-----------------------
----0----------------0-------------0----------------------------------------------------------------
----0-----------------------------------------------------------------------------------------------
-----0------------------0-----0--------------------0------------------------------------------------
----------------------------------------------------------------------------------------------------
-----------------------------------------0----------------------------------------------------------
----------------------------------------------------0------------------------0----------------------
-------------------0--------------------------------------------------------------------------------
----------------------------------------------------------------------------------------------------
-------------------------------------------------------------0--------------------------------------
---------0------------------------------------------------------------------------------------------
---------------------------------------0---0----0---------------------------------------------------
---------------------------------------------0------------------------------------------------------
--------------------------------------0-------------------------------------------------------------
--------------------------------------0--------------------------------------0----------------------
-----0----------------------------------------------------------------------------------------------
-----------------------------0-------------------------------------------------0--------------------
---------------------0-------------------------0--------------------------------------0--------0----
-------------------------------------0----------0---------------------------------------------------
------------0-----------------------------------------0---------------------0---------------------0-
------------------------------------0------------------------------------------0--------0-----------
----0----------------------------------------------------------------------0------------------------
---------------------------------------------------------------------0--------------0---------------
----------------------------------------------------------------------------------------------------

Generation = 10, Population = 2606.
---------0------0-0-1-0----1-...-00-01-0-1----0----.10-1-0----0----------------0-0-1-111---.-----0--
--------0----101---0----0-1-10----00-------1---------------------0-----0-00-1-.-0-----*..*..----00-.
-0----00---01--0*11-0--0*--0.1.-1.---1010-----00--0----0--------0------------0-1-*-1-00-*0---.-1-1-1
----0-1---.-.0.--0*1-..--101-.-.--..-------------0------------10-----0-0-0-00-01-.--0-01-1-0100----0
---01---*0-0*--0*0*0.00.....****.*.*11-10-0-11...*0-----0-0--------------------1-1-0----0---1--0----
0-0---1-1-.-11-1--1-1---0---10-00*011--0-------0-0-0--------1---0--0-0-0-0-------00---0-0-1.----1-0-
-0----0---.---*1.---01-11-11*..**--1000-0---001-*1----0-----0---0----------------0---0----01*.0*-0--
0-0-------0---.--1---0-----0-----.00-0---0-------0-0-0--------.--0-0-------1------0---00-0-0--..*-1-
-------------0--*1-1--0----.-*.*------0------01.-1----0---0---0---0---00-0010------0-0-0-0-11.01--10
0-----0-0---0-.---000------0-10.-----------0-0-----0-----------*-------1---*-0-0--0--1001--0-----*--
-----------0-1.--0--1-------1-1-0-0---------0--00-----------0---1---00-*--0.**-----0-*---.-1-0-*1**0
0-0-------0-----0---*-0--0---*-0-----0-0-0-----0------1------1-.-1.--011-*-*-----0-01.11-*-0-0-1.0-*
------------01--1-1-*-0--0-11.-1--------------0---0-------.-------.---10-10.-*--0----*-1-.-0----0*01
0-0-000-0-------0-0-1-----------0----01-------------1---1--.0--1-.--.---0-1.11-0-------.--0-*-1--.--
---------0----0---0-1-00-1-1010-1-----1---------0---0---1-------.-------00-.-1*1---------.0*01------
---01.*00-----------*0---0---0---10-1--11--0-----0----0--0*.--*1------0----1-----0-0-.-.0-11-0011--0
-----*-0---0-------.1-10-.-1--1--1--0-*-------0-------0---0-1-*-0-0---0---001.00-1---------0-0------
0---110---0------00*.-00---0---11.-0-0..-----0-0---0-------000...---0--0---11.1----.-1----0-0111-1-0
---0---0-0--1---1-00.-1-0-1.1---0.-0--.---0---------0---0-------1---1-0-0--*...--.*1--0----0-.-0----
--1-----0---*-1--0.011.0111---00*1-0-.-----0---0-0------------0---11-10--1--11-100-*-1---0-0-----0-1
-----0----1-.-0.-..*1*--*.-0.-*1..-00-.---1-0-----0---------------0--1--1.*-..--*---10--0----1------
11-------.0-1---.11-...1*1--0--0*-*1-0--00.1-00-----00------1---.0-*---1---11--*0-*.0*-----0------*1
------------0--0-.--.----0-1.*00-*.1--0--0--------------.-------.-00*0-1.-.*1-..--1.-*10----0-------
*--0------.-------10.01---0-1-1-*0.-.-1-*.-.0---0--1..*0--.---0---0-0.-0----11.01--1100--------00--1
---------------0-----.---0--00--1.----1-.-.-----------1-------0---0-1-1------*.----010-0--0---0-----
-1--1.-------.--0---.---------001-.----*-.-0--0-0-----------0-------00----0-0-1---1-.--1--10------0-
---------------0--1-*1-----0-----------11.-0----------------1---0---0---0--1-0-.----*-1--11-0-------
--0---.-------.--1--*------------1-0--1--1--------.0------1---0--------00-.1*----11..0.*11.10----0-0
----------------0--0*-0---------0---0*---0--------.-------0-----------0-----1----0-*.01*0---0-------
---------.------1.-011----------0----1.------0--.0-------0---0------.1-.--11-1-0-0.0*.**--0-10-0-0--
-------------0-*0..--------0------00---0---------01-0-----------------0---0*0-1-00-1.*11-10---------
----------.--11*1.0.1.-0----0-11--0-0---0000---00*.*---0---1.*10-----.-0--0--0----..-*.-.-11--0--0-0
---------0-0-.--.1-*-------0-.---0---0--------0-11--0---------------01--0.---*-0-0-0-.--..0.---0----
--------0----*-1.1..--0---0-1.-.11----001-.110--------.----1-0-00---11-----11.-1-0-.1-01.0-.0-------
-------0--01-*--*.*.1-*--.01---*---0----0-------0-0----------------0--*0-------.01-.1.-0--.-..---00-
----------1--*1.--*1-10-----0.-0---------000---0------1------001---1--10-.---0--01-.--**--1--1-1---0
--------0101*.1.**-1--..-*1101---0----0---0------------0-------------1----------0--*--*..0*.1--10---
-------------*-0-.0-0-.*10-----------------------.1--0--1----0--10---0----------0*1*-00.-01*---0---0
--------0-0-01---11--..-1-011--0--------0------------1---0----0-------------0-0---1---.-----0-----0-
-----------0---0--011.--0-----------0--0-------00-**1--*-------0--1--10--0-----------10----0-0-0----
----------0------*-.-.-0--0--0----------------------0--.----0---.---------0-.11-0------1--0---0-----
-------------0-01.-*-10-----------0--11--00-------0-*0-..----0--0--01---1--0-1-0-0--10-----------0-0
---------------0-*0----0-------00---------------1-1---0-------0---0--------01.11-----0---00-0-------
--------------01-01------------1----.--00---0-0-------1*--00--11--*--00--1-0-.1-10-0---1--1--0----0-
----------------110100-------01--11-----------11.-0-.-------0--01---0---------*--------10---0-------
-------------0--*1-----------0-.-0--------------1---.0--100-100-0-------------1.-10--0--**.11--001-*
----------------0-1-0----------10---.--------0--11---.*---1-.-0--00-0-1-.-1----10---0--1--1---------
---------------00--------0--0--0--------0----0------.--01-0-.-0-00---.-...----*-*------1--00-0----00
------------------0-------------------------1--0-0-1--*-*0-1------1-.-*---*-1---.----11--0----------
--------0-----0---0----01-11--0---0--------1--10--*-1-1-1---1-001---..-----00-.-.---*--1-0---0---0--
-----------------------0---------------01-0-.-10-1.-01*-*.---*0-------1---0-----1---0--1------------
-----00---0-----0-----11-10-0---0---0--1----*.---1--*-*-0-1-*-1--11--.--1---0-.-...-.0--1000--00---0
---------------------0-.-0-----0-----01--10-0----1*0-0*10--*1.-1----.-------*--11-------------------
---0---00------------0--10--------0-00---0---0.--1.-------.-.*.-0---*--1--1.--*.--.-0-010-0-----01--
-----------------------1-----0---0-----10---0-1-0-----0--0.*-.---101-11-----*--1---------------0----
-----0--0--------------00---------0-0-01-.-------1---00-*-.0.10-1-*0.-1--0--*-1.-01-----0-0---------
-------------------------------0------------0-0-1--0-.-----1..0-01*.-1-0--0-.11.*0--0--------1---0--
------0---0-----0-----0---0-------01.-0---1---0-.--0--10--.0---0---10--0--11.101---0-----0--0--01.--
------------0------------------0---1------1-----.----00--.1--.1---00-0------1--1--------------11----
-0--0---0-----0---0-----0------1---.1.-101--1--0*----0---0-1.10--0--0---00-0*.-1*------0------*.-11-
0---------0--10--------0-----0----1.11------0--100--000-----*0------------------*-------------0-----
--11--0-------0----------0--00-*--0.-.0.0.10011..1-----0---01-0-------1--0-.-.11--1----------.-01---
0-0--------01--0-----0---1----01----1*-1-0---0-..-1-1--10-01.*00------.---0-----------00---1--------
-0--1-------0-0---0----1--11-11001-*......11---1..-0*---00--1---0---0--0-0-1-.--1-0-1-0---1*------.-
0------------0---------0----1---101-.-1-1--0.0--.-*--10-1--010-0--------1--01.---0--10---001-0---0--
---.--.------1--010------0-01-0*.11..----1*.--*-...*-01---0-------01-100--1*...-1.---01-1..**----*1-
----0-----------.1--0---------.00*-1-1-1.-1-1-.-*-1-----.-0--0--------------0--.-------0--01-00--1--
-0-01------0-.1-..-0---------0--01--..011---0-.1.--0.10-1---0---00-101-0-0--.-*-1---1-10--1-------1-
1110*1--1--0-1.-.---1-0--------.-0--10--0------*.000-1--0----0----------01*0*--0-011-------0-110----
-**1--------01**1..-----------0----..01--0----0-.*1-0-0-------0----00-------*0*-1-1-1-------***..--0
*-**-00-.--0.-11.*-0*1-------0---1--1-1----0---*-*-*---0---0---0------0----.*-.*--.-10----0-10-0----
10.-1-10--11...1-*-.*.*-----0--01-1-10.100------0---10--0--------.01*...----*-----*-------0---*1---0
-1-1-11---.--.-00*000-.11------0----1---0----0--*---00-------0-----0-*1-1-..1.*1-101---0----0-1-----
--1---0-0----*1--0--*---------0--0-01-0----0--0-.-1---0----0--------0*0---0**--.-0--.---0-------0---
--0-10------.*0-----000-0-----.-------0-------0-.-0.1-0--------.---000-.0*-*-.*-*1-1..---0----------
.-1--*0-----0----1---1-**..0--..-----0---0-0----*--0-.---0---.------1-1.-*0*10-*---1------00--0-----
*1.1.-10.-0--*0-------0-.-0-0-.-1---------------0---10-------*---01..-*1.1..-.0*.*.-*100------------
....*.**-*---0--.--0---...1--0-10-----00-0---01-0----------0-.-0-------.1110*.1.---1-----0---0------
.*.-*-.--0*-0-00------1-*-0------------------0-----0---0---1-.-0---00--0*--*...-**011-0-------------
01-.-*1----0---10---.--1-1---01-.11.0**-10-00-0-010------0-------------01-001-0.--0--------0--------
*1--.0---1--01----------0---0---1-----0----01--0*----0------00-------0----1-.-1-----00--------------
01-0-.-0-.-0-00-------0--0-0---01.-10-.10----10-.--0-------0-------0-----0-----10---0---------------
-----0-----------------------00-----0-.-0-0-1*--1---------0---0----1---0----11---0-0---0------------
---11*-1-0---1-----------.---1---0-0-0.------0---*-0-0-----------0----------------0---0--------0----
-0-00.-0---------0---------1---0------*1---.0---1-----------0--------1---01--110-0---0--------------
--0-.-0----00-----------1--0--00-0-*-0..*0---010---1--100--------------0----1-------0---0----0---00-
--1**10--------1---0---------0----0-11.----11-1---0--1---------------------01-----------0-----------
---1-*-1--0---0-------0---0-01*.1--1--.1*.0.*1.*01--10.-1-0----------0----01--0-------0--------00---
-0---*0----------0------------0-0-.---..0*1.*.-*1--1*--0-------------------------0--000---0---------
-00---0--.--00-----0----0---0-*11-*1.-**.1.-1-.11-----0-0----------------0--11--------------------1-
---------------------0------0-.-0*-..-*...1*----.-0--10----------------0---1------01.-1-------------
---11-----.1-1-0-0---1---.---01--0*-0-..0-01--*--------0-----0-------------10-0---------1-----0--0--
---------.---------1---1-----10---0**..1*011.-----0-1---0------------------1----------1..-.---------
-1---.-----0-1-1.--00------1-.-0----.**-01-01*--0----1---0-0--10----0---1*0..*-10--0*-01*.1-1-*11--1
-------0---0---------0---.-01--11-0*.-..0-**---01-.-1-1---0--------0-----*-1-*--0---.-*0.-----0-0---
--0-.-.------0---.1---0------1----10-0-00--.010-0-*.--00----01--0-01---1*0-.-1.0000*.---------***00-
---------0----------------0--1..-.*11*1*1.10-*00*-0-----0----0---------1-*-.-.1.*-1....-.-*--1.00-1-
0---10--------------00---------------0*00--0--001---0---0-----0--0--11--..0.....1*00-1-1*00----01---
----------------------------0------00*.*1---000---1--------0---0-------0--0-0---110.0-----0-----0---
--00-0-0-----------0-0-0--------------1------0-0-0----0------------0---0-*-.**.*1---0---0----0-*-00-

Generation = 20, Population = 3995.
1-*-***1*1--*-.---..*.-.-**1..*.1.**.**-*-.*-**..1-*.--*.-**1**.*-*-1*.0-1-*.**.--.*-*...****.0--1-.
--1--*.-.....*....1**.**.*.*.--*.-.**..*-*-.0.-*---.*0*1*0-*.*.0**..0**-1**....*--0-.0*.*.....-..*-.
11-1**-**-1...*0****-.*.....***...*.-*-*.*--.*.*..1-.0*...0.0-*..--1-11-11-*-.1*-..**1.*..-.*..-**-.
---**-.-....*.**.*..*..0-*-.-.**.*..-01*1.-*10..*.-**0-....---..0**1.-11-.-**1..**0--.*....-***.--..
.....1*..---*....*...........*..**....-1..--....***0*1*....-01-..-.--1..-111-01*1.1...*1.*.*..*-1-**
1-*--1.1**.-.....*.....1.1*..1**...-..-.10**...------.0*11.0*-..*....-.**1---.*-...0*---*.*.****.*1*
-10-...1...1-1*.**..*.**........**...*.011...-.-*.....-.**.-.1-0.-00-1.*1...-......-*01-1.0...-.0**-
1-00--.1.11-*..-.*..-.*1*.-.*-.**.*1*.--11*1..--.*.01*--.0*..-.*..*0*.-*-1..0-.*-**--***0.**-*....*.
1---0-*01*1-.*0-.-..1-...-..-.*..1*.*...0..--**.*.1-*-.1.1.-.0.*.-*.0.*--*1.--..--.-*1*.1-1*.*..1-..
0----1.-*0--*.*..*..0---1---1**.1-*-.-*----.-.*..-**.11.-....*-.*....****.*.*.*-..-*.*0.*..-.-*....*
--01--.***-.*.*111.1.0*11.*..-***.*..0*----.-.*-.*----.-**--1.-*.-*...**-*-*..1...-.*.**....*.-..*.-
-0-.*..-*-1.--..*--*....*..**.-**..*.--**--11-1.*0*-.*..-11*1.-.-1*.*-..0....*-...**.*...**.-.*..*.*
0*--..--1..11..*.0..*....*.....*....1-***-*---..0-*00-*-.-....*-.-***-**....-*--.**1**.*..1.*..**.*-
--****.-1.1-0..*..01.*.0-..1-1**..-...--**--1.-....0.--1*-*..*11**1-...*.**..*..-.00-*1.....**.-0..-
0-.-0..-*-0..*0*.1.-1...1*-.*.*...*1.-.-...1.1-11---**--...*..-**-*0...*****-1.*.1-.-*.*0*.***.*.*..
-.*1*...101000**--**.**.-.-1*-*1*..1*...*-.*1*01--.-.1*.-...*...0.**-.-.1.-*-..*-.1***1**...-*1.*.1-
1...*.1.*.*-*-1.-1*...*0.*-.-**1*.*-....--**111.1.--0-.-1-1-.-.**.0**..11*.*..0*-..*0-*.--....-.-0..
-*1...*1*.-....-.*1...*-*...0.......-0..-..1-.*.0-0--.**---.....*1-..1**.**..........*.....-...*1*--
11-**.-.-1--*.**.*.*..*-*-.**-.*.*.--1*---.-0*.11-.-1*1.--.1.--.*10-..*.0*..***1.....*1-..1.0....*01
.11.*.1-..-.*****-*.*......-.*....*.-.*....0....1.--.*1-0-*-*.*.--..-.*1.*-....*..-**.--*1****-*.*.*
-.--1*0-..*-***.-.....*.*.**.*......*1...-****.--*.*.*-0*-...--.*.*1.*-.-..1*.-..-***.*.-0.....0.-.*
*.1.-*10..**.-.........****.*....-...1**.......--*.*-*-.*1..-1-..1*.***.**....*.****1**....--*11-*.*
..1-1...-..1*-....*.....-*1-.*..-...*......-**-*-*0*..-**-*1.0*-*0-..-..*.*....***..1..*-11-..-.....
*..-*.*.--.1..-.1**.*...**--*-*...*-..*1....1..0.1**.......*-1**.1-.-*..1-*..*****0..-*0**.*.--*...*
-.*-110*-.-.**1-1...-.-.1.-....0***-*......---1.--...*.*.*.-1**-*0.*...*.-0*****-*1.***-*...***1*..-
-.--..**-*-...*11..1..1*....-.*1***1*-....*..*.*-1..-0...*0-.**----...*-1*..*...-1*.*1.*-.*.*1*-0*.-
*.-*--.1--0*.0*---.*..--.*..*1..-1*..*-...1...-*1--**-...-..*-..-.--.--1.....--***....*.1*.**.*---11
-.--*-..--.-*...--.**1.-.-.1.*.-...*0*.-*.1*.-*00*..1*--1..-..-.....*.*..**.*-.1...***.*..**.-*1-.--
----0*.0*.-**0.0.*.*...-.*-*-**1..--....*.0*1*---**.*0--*-*0*.01.1.1-.***-.1*...*.*...****.0*-..01-1
01-11-*-1.*-****.*0-...1*..*-.*...-11...0....*****-*...01-..0*.-.**1..-.-..11.*.....*...-1..*....*..
0--*--*.-*.-*.*..*.....1-.1-.**.-0-*...--*.*..1*1.*0.1.1*.*1..0...-*--.*1....*--**-.*......-*-..-*--
*.1.0*---.***.*.-.0......10..-.....-..-.**-..-....*.*--.1.-1..**.*.**.*-.....*-1-*..*....-.....-1--0
-*0---1.1.-01**...-.....*.**...-*-.-**0*--..-**..1.*-0.-*-.0-*0-*..-1.1.*..-.*1**-*.*...*....*-.1.-*
---1-110...1.**-........-........--*-*..1.....*.1*.0.*.**-0***.**.-.-...-.-*.........*....*...-...0*
-0**--0-1.****..........1*...**..1*-01-1..*1*0..-..*.-.*..1--...---.1.*.1*.--***-.*....-.**-...**-..
11-0-*.*.*-.***.*.*.*.....*-.***1.1-1.*1...*-..--......0*---**1.*-....*1.*--.1.1......**..**--**.**-
*1-1.*-..*.-**........*...-***.-.----0*.-1*-0-*1*.*11-.-*.-.**-*1.1...*-...1.1*...-.....***.*-1..1.-
-----11--..**.***.....****........-0.-.**...**1-*.*.....1.*1-*--.-00-.--*-*1.1..-....*-**..*1001-11-
00---1****-1..1*-.**-....01...*--1.---0--11*110-0**.*.-.**.*---**..---*----....*...*****0..*1**-.1.1
-0---1-10.1..1--0.1*..1.*.--.--1**-*1-01**..*1**.0..1..**...-0--*1****-*10--*.0*........1.****-1--.0
--0--1--1-1.-*.--.*.1..1**...0-11..**..0--*-**--*-***...-.-1--*..-*.-*.-.**-.*..1..-*11-.*---*..-0.*
-------00....1*..*0*1*...1.-...1.-.*...1***.1.---*.1...*.-***1-***--..--.1...*........*-*.-0-100111*
--0-------0..1..-**0*.-.-..-1--*.1.*.01--0-*--*-.-..-.***-11.*....*..*-*-*.*.*-.-.-.1.101*...-*-*-1.
-----0--0*.1.*..1*.**..-..0-.-0.1....--.*01*.-*.**-*1-..**.*.-.--1..-...1.1*-**..*...0*..1.*.----***
--------0--0*.**.*.*-.***---*1.1-1.*...*11...**.*--...*1.--**.-..1.-*..0.-..0-..-...-*******.11*1*1.
-0-0---1**...-.*.*..*.**.--01...1**.*-.-*--.*..0.1*-*.*.*..-.--..---*..**-.*****.*-*-..**....--*-...
-----0-----1.-0-.*1--..-**1**-1..1-.***.*-0.*.*0..1.-...-.**..-.**-1.*.*.-.0.-1.**0-*1....**.-*-010.
0----.-000-10-*1*-*.1.*-1.0.---.*-..10-1.*--1.*-*..-..*-*.-*.-..**....****..**.....0.1..*--.0---**-.
----1-1---0-*0*1-.**1.*.11-*-.*.-1***1.0*.**...***--*-.**--.**-*1..0.1..*-.-.-.-.1-.*.*-*1..-1*-*.0.
--0*.1--.-0--*.*.....*0.**....-.--0.**.*.**1...-.-...0*.1*.1***1*..**..-***.**...*..*-**..-0*-..*.*.
00100---.10-0-*-0-....00---*-**.*-1---*-.*-..-..*.***..-*.***..*.-.*...1--.-***..1-**--*-0-*1-*.0-**
******.-*-*0101*.1.-.-*.-*..1-0.01-.11..-.*.**..11...1...*1-.-.*.*.*1...*..-.-*.**.*..1.......*-***0
-1-00-1-...0*1*-1-*10*-.*0**1-*-11.-**.111-..*0.*.**1....*-...**1-1*.*......*0-*..1*...***..**-.-.*.
-00.*1*-***0---1..*....-*****.10-.*.***.*..**-*.*....*.*...-.*.**.*0*1..1-...*..*...111..-*..1.-...-
----1---*----*-0-0*.-1**.*1.----0-1-.*0*-*.-***--.-*.*.-.*..***.1***.*-***.***...-...--*110--.*.0-1-
1--1---1--11*-*1*0....*0.*0*0---**.-0..--....*-*..**1.**.*..*.*..**-.-.***10....--.--0*...*.*-..-.**
1-1-100-*110-.1---*-*.-.11--1.*.0.*..--.**--1-...0.**..1*-.1**.***..11..**.-**.*.*.--*.***1..-..*1*-
0-*-01---0.0.-0-*--1.-...11--.*.*-*..*0..***..***.-...*.*1...1-1*--..---.**.*...-*.0..0---.....1.*.*
.0*-------1*.*-*.----*-***0--1..-1-..***.-***0.1.0*..1*.*.--...00**0**-1-*-.*.-.--.*1--*0.-..-****-*
.11--110--.-10.0.---1----*.-*1..1-*...**..-.**..*1*.0...0-..*.-.**0--0**..**.*-..*1.-*.1--.*0...-..*
-0.-.10-*.*-*..*-.11*11..11*.-*..**....-.*-.--.*1**0*.-0*--*.*..--1.----.-...*-.*-.-.-..****.1****-*
...*..1*-0***.-1-**.--.----*.-......1**...*-.**.*.1*...*.*.-...*1*---...*--.****11.0.*1..0*..*....-0
.1..-0.-1-...*-.**-.-.0*..*.1*.**0...**..*.00...*-*0....1-.-....*.1*-1..-1**.---*-.*.--.**....*0-..-
0--**.-00-****.-----**1..-.*-..-*-......****...**..***--*.*....*.-1.-*--*-...*...-**....**..*.*.....
-0*--.**-.*.*..01.0*011..11**.-.-.1***.*.**.*--**-*.-.*1***1*.**-.-**.---*1***.-.-.....*...*-1*--.-.
-*-.*...0**-*..*1.*-*-*......1**..*..-.......*..**.**-....-1.*-.--..0.*.*-.**.....**-1.....*.-.*.*.-
.-*1**-..-0.......*0*-0--..-...*..*..*.*.**-*-.-.-.**1***.*.11*1*.-..-*0..*-**..1.*-*.*-**1....*.**-
.*.1*..0..-*-.*...--0..*-*...1-*-..1...*...*.*.........0*-..*1-.1*-...-*..-***.....---.-..****.1**.*
..*..**-*1*.*.....**..0--.---.-*-1--...-*-.-.*0..-.****-.1--*00.*.-0......*..**1-...*...1-.-*.....*1
..**-**.-*-...*...*.-**1.1.--.-*..*..0*-1.-..*1*..-....*.-.*-**.--**.1*1-.1..1...-.-.*1-.0.-.......*
..........1*..-*.*-.**.*-0-*-.0*-.*-**.1**-.**...*...--1...1-.*0*.-.....**1.....*-..****1*.-.-..-***
.1.--...**.*...*-.*..***11*..-.-*1*0*-**--.--1**.--*.-.-*--**-*...*.**.**-***-0.-*.1-..1--*.--*.-.0.
..*.-..0.*.*.*.-1.0.*.....101.**-0*0.1*-*1.--.......1..1**001.*--1-.-.*0...**..*11*.*1--***-.*...-..
*-.*1....*1.***--**1..*...00.--..-*.*.*..*--*---...110-.-****.*.---.1.*.-.*.*.0.-.*-**.*-..---..-..*
*-......0*-***..*---***..1.*.1..*--****-.0-.-*.*.....-*....1****---.--....**..**..1.**..0-.*...*-1**
*1.-..*--****.-...-*.*1**.*-*-..**.1.*0*--.0*1.-**.*-*0----..*-0*1*.**.**.**-*-.-...**---0-*--**0-.1
....***-*0**-....-**1.**.1.-1-.-.-.1-*.0--1**..1--0......-*.-*...**...**.**.***.*.....-..--.***..1-0
.....*.*.*.**..1.--*--1.**.*.*..*...--**.--*-.....-***1...1.*.....-*011.**-......-.***.***1-0****.*1
...-**.*.-.....--0*--.1.**..*-**0*.*-.-*-..*..10**0*...-.-*...*.*......1.1*......*....*.**--1-.1-01-
0***1..**--...***-..*.***-*0*......*...-.-..-*..0-.-.*-.*-0...**-.1.**.*1-..***.....-.-.1-01-11--10-
..*1*---*.1-.*--.-1*.1*..1.1-0*-.-*--..-0.-......---1..-.---*.-*1***.*..-**....**....*-.-0---*11----
*.*....-*.-1*0.*..-..-.-.*-**-0-*..*11*.--.....-..**.0..-*-.*.01---*0*.-1*.1-*...-1.*11-1.00-0----1-
*..-1*.***-.*0-*1--*--.-..--.-**-.*--1.**--0.......-*.1.**0*0...1.-.*010-*0.....0....-1-.-1---0--0--
*-****0*-.0*..1*-1..0--..*-.*..*.*1--***.*--..-.***.-..1*..1-.-1-----*0*1-*01*..*-*-.----*-*-----00-
-0*0-***-.-0*-.00110..0*--..1*1*.*.-*-..**.....1*.--*.1--1-0..00*.00*.*.....1*1*-.-10*1--.-------1--
*-...1--.-1*101.-0-*.*1-.*-..*.-.***.-*..*1.*.*-*.*****0.-.0.--10--110*0.*.1..-.-.-0*1-**1-*1*--1.-1
**....-.--.-*10--*0**--.*.0.--**1..-.**-0**.*..--1*-1*1.*..1*-.00---1---*--**1.*1--1-1-*-*.-0---0.--
0.-...*.....1*.1-.1*1.**--.0**.*.****....****..**..*1*.*-*--..--11----*-.....----.*..1...1.*.-1.**-*
0.**..*...-0-1-1--1.-*---*1--...*...-....***..*..*.*.*.1.-0*.01-0-11-.1..-.***-.--....-.1*0-*-*-0.0*
.-**.*..-....*.--.01*0-*--.**.....*..-.*...-.......0...*..0*.**1000*..*.-11.**.*-1-1**1-*--0*...1.*-
1*..1-**..-..1-...1--***.*.1*-.0****....*...*-.*...1-..*0-0-..---*-1111.0-1.*..-*.*...1*......0.*-0.
..*...-.*...-..-1-**.*..*.*1.1.-*....0....******...*--1....-**.-11-..--***-...*.*0-*--*.-...---..*-*
0-*-***.*..*1*..*-1*0-..0**.-....-*......*...*.1.--*.1-.1---....01-----1-*...*-0*.*1.-*****.*--.-0*1
*..1*.....*.11*..0--*-1..-0.**-**-.......*..**.-.*.-*11**.*-*...-.**--*-**....-*-.-.*-*....11-.1*.--
--*-*.0*-**-.***-...0*10..-..*.-.-1....**.**.-*..****1..*0*1.**-1-.**.**0*-*1**.*..**-..**.*..*0*.**
111......*..-*-0-....11..***.*.1.-.1...1**-.*...*...*-*.*.*.*....0......**....*.....*..0.1......*..-
*--*-*-**-*100-..-10..1*.**-...*0.......***-**-..-*-*---*-***.*1*-***.**......**.0.*...**-......*..0
*11*...-1*---.0.1-*1*.-*.--1-.-1-...***-.*1--..*.*..-*.*-**...101.0-**-......*....1**....1...*..**.*
*-.-*1.---000001*-0**--.--*0*...****.*..*--0..-..-.1.-1.*10101--0.-.-***-..**11.......*-*...1....*-*
.**.1..-0.------.-..0-*--011*.*0-**.*11-..11-.1*.****.1..-.-.-1-1.*..-1*1..**....---..*11.-100-..**.

