*** Life<ConwayCell> 50x50 ***

Generation = 0, Population = 96.
..................................................
..............................*...................
......*...........................................
.*.................*..............................
.................................................*
.........................*........................
.......................*.........*................
..................................................
...............*.............................*....
...........................*........*.............
..................................................
..................*.......................*.......
....................*..*...*......................
.......*..................*.......................
.................*..........*.....................
....................*..................*..........
..................................................
.*....*......................*.....*......*.......
............................*................*....
.................*......*.........................
..................*...............................
.....*.............*..............................
........*...........................*.............
..................................................
..............*......*.......................*....
.......*..........................................
..................*.........*.......*.............
...............*..................................
.....................*.......*....................
..*....................*.............**...........
..................................................
.................*.......*........................
.*........*..................**..............*....
....................................*.............
..............*............**........*............
...........................................*......
.....*.........*.........................**.......
......*.*...................*.....................
..................................*...............
............*.....................................
.........*................*..*...................*
*.............................*...................
..................................................
*.....*....*.......................*.....*........
...................*...................*..........
....................*.............................
.*.....................*.....*.*..................
..**.................*............................
........................*.........................
.....................*............................

Generation = 1, Population = 8.
..................................................
..................................................
..................................................
..................................................
..................................................
..................................................
..................................................
..................................................
..................................................
..................................................
..................................................
..................................................
..................................................
...........................*......................
..................................................
..................................................
..................................................
..................................................
..................................................
..................................................
..................*...............................
..................................................
..................................................
..................................................
..................................................
..................................................
..................................................
..................................................
..................................................
..................................................
..................................................
..................................................
..................................................
............................**....................
..................................................
..........................................*.......
..........................................*.......
..................................................
..................................................
..................................................
..................................................
..................................................
..................................................
..................................................
..................................................
..................................................
..*...............................................
..*...............................................
..................................................
..................................................

*** Life<ConwayCell> 10x10 ***

Generation = 0, Population = 60.
......*.**
*.*..*.***
**.*.*****
**...***.*
.*..**.***
*..*.*.*.*
.***.**.**
.***.**.**
.*..**..**
.****.***.

Generation = 1, Population = 22.
......*..*
*.*.**....
..........
..........
.**......*
*..*......
*.........
*.........
*.........
.****.****

Generation = 2, Population = 20.
.....*....
.....*....
..........
..........
.**.......
*.*.......
**........
**........
*.**...**.
.***...**.

Generation = 3, Population = 13.
..........
..........
..........
..........
.**.......
*.*.......
..*.......
..........
*..*...**.
.*.*...**.

Generation = 4, Population = 11.
..........
..........
..........
..........
.**.......
..**......
.*........
..........
..*....**.
..*....**.

Generation = 5, Population = 9.
..........
..........
..........
..........
.***......
...*......
..*.......
..........
.......**.
.......**.

*** Life<ConwayCell> 5x5 ***

Generation = 0, Population = 25.
*****
*****
*****
*****
*****

Generation = 1, Population = 4.
*...*
.....
.....
.....
*...*

Generation = 2, Population = 0.
.....
.....
.....
.....
.....

Generation = 3, Population = 0.
.....
.....
.....
.....
.....

*** Life<ConwayCell> 20x20 ***

Generation = 0, Population = 200.
*.*.*.*.*.*.*.*.*.*.
*.*.*.*.*.*.*.*.*.*.
*.*.*.*.*.*.*.*.*.*.
*.*.*.*.*.*.*.*.*.*.
*.*.*.*.*.*.*.*.*.*.
*.*.*.*.*.*.*.*.*.*.
*.*.*.*.*.*.*.*.*.*.
*.*.*.*.*.*.*.*.*.*.
*.*.*.*.*.*.*.*.*.*.
*.*.*.*.*.*.*.*.*.*.
*.*.*.*.*.*.*.*.*.*.
*.*.*.*.*.*.*.*.*.*.
*.*.*.*.*.*.*.*.*.*.
*.*.*.*.*.*.*.*.*.*.
*.*.*.*.*.*.*.*.*.*.
*.*.*.*.*.*.*.*.*.*.
*.*.*.*.*.*.*.*.*.*.
*.*.*.*.*.*.*.*.*.*.
*.*.*.*.*.*.*.*.*.*.
*.*.*.*.*.*.*.*.*.*.

Generation = 4, Population = 114.
....................
....................
................**..
..................*.
*.*.*.*.*.*.*.*...*.
*.*.*.*.*.*.*.*...*.
*.*.*.*.*.*.*.*...*.
*.*.*.*.*.*.*.*...*.
*.*.*.*.*.*.*.*...*.
*.*.*.*.*.*.*.*...*.
*.*.*.*.*.*.*.*...*.
*.*.*.*.*.*.*.*...*.
*.*.*.*.*.*.*.*...*.
*.*.*.*.*.*.*.*...*.
*.*.*.*.*.*.*.*...*.
*.*.*.*.*.*.*.*...*.
..................*.
................**..
....................
....................

Generation = 8, Population = 38.
....................
....................
....................
....................
....................
..............*.....
............***.....
..............*.....
*.*.*.*.*.*...*.....
*.*.*.*.*.*...*.....
*.*.*.*.*.*...*.....
*.*.*.*.*.*...*.....
..............*.....
............***.....
..............*.....
....................
....................
....................
....................
....................

Generation = 12, Population = 24.
....................
....................
....................
....................
....................
..............**....
..............**....
..............*.....
...........*...*.*..
..........*.*.*...*.
..........*.*.*...*.
...........*...*.*..
..............*.....
..............**....
..............**....
....................
....................
....................
....................
....................

Generation = 16, Population = 14.
....................
....................
....................
....................
....................
....................
.............*......
...........*..*.....
..............*..*..
..............*.*...
..............*.*...
..............*..*..
...........*..*.....
.............*......
....................
....................
....................
....................
....................
....................

Generation = 20, Population = 6.
....................
....................
....................
....................
....................
....................
....................
....................
...........*........
................**..
................**..
...........*........
....................
....................
....................
....................
....................
....................
....................
....................

*** Life<ConwayCell> 20x20 ***

Generation = 0, Population = 200.
.*.*.*.*.*.*.*.*.*.*
.*.*.*.*.*.*.*.*.*.*
.*.*.*.*.*.*.*.*.*.*
.*.*.*.*.*.*.*.*.*.*
.*.*.*.*.*.*.*.*.*.*
.*.*.*.*.*.*.*.*.*.*
.*.*.*.*.*.*.*.*.*.*
.*.*.*.*.*.*.*.*.*.*
.*.*.*.*.*.*.*.*.*.*
.*.*.*.*.*.*.*.*.*.*
.*.*.*.*.*.*.*.*.*.*
.*.*.*.*.*.*.*.*.*.*
.*.*.*.*.*.*.*.*.*.*
.*.*.*.*.*.*.*.*.*.*
.*.*.*.*.*.*.*.*.*.*
.*.*.*.*.*.*.*.*.*.*
.*.*.*.*.*.*.*.*.*.*
.*.*.*.*.*.*.*.*.*.*
.*.*.*.*.*.*.*.*.*.*
.*.*.*.*.*.*.*.*.*.*

Generation = 4, Population = 114.
....................
....................
..**................
.*..................
.*...*.*.*.*.*.*.*.*
.*...*.*.*.*.*.*.*.*
.*...*.*.*.*.*.*.*.*
.*...*.*.*.*.*.*.*.*
.*...*.*.*.*.*.*.*.*
.*...*.*.*.*.*.*.*.*
.*...*.*.*.*.*.*.*.*
.*...*.*.*.*.*.*.*.*
.*...*.*.*.*.*.*.*.*
.*...*.*.*.*.*.*.*.*
.*...*.*.*.*.*.*.*.*
.*...*.*.*.*.*.*.*.*
.*..................
..**................
....................
....................

Generation = 8, Population = 38.
....................
....................
....................
....................
....................
.....*..............
.....***............
.....*..............
.....*...*.*.*.*.*.*
.....*...*.*.*.*.*.*
.....*...*.*.*.*.*.*
.....*...*.*.*.*.*.*
.....*..............
.....***............
.....*..............
....................
....................
....................
....................
....................

Generation = 12, Population = 24.
....................
....................
....................
....................
....................
....**..............
....**..............
.....*..............
..*.*...*...........
.*...*.*.*..........
.*...*.*.*..........
..*.*...*...........
.....*..............
....**..............
....**..............
....................
....................
....................
....................
....................

Generation = 16, Population = 14.
....................
....................
....................
....................
....................
....................
......*.............
.....*..*...........
..*..*..............
...*.*..............
...*.*..............
..*..*..............
.....*..*...........
......*.............
....................
....................
....................
....................
....................
....................

Generation = 20, Population = 6.
....................
....................
....................
....................
....................
....................
....................
....................
........*...........
..**................
..**................
........*...........
....................
....................
....................
....................
....................
....................
....................
....................

*** Life<ConwayCell> 25x25 ***

Generation = 0, Population = 493.
*..***************.*****.
**.***.***.**.******..***
**....*..**.**.****.**.**
.********.*****.****.****
**************.**.*******
******.****...*****..**..
****.*..***.*.*****.**.*.
.***********************.
*****.*..************.***
.***.***********...*****.
************.**..****.**.
*..********....*****.....
*.***.****.*******.**.***
***.********.**.*********
.*****..************.*.**
*****.*.***********.***.*
****.*....**.****.*******
**..***********.*********
*******.*********.*******
********.***.***.******.*
.**..**.********..*.*****
**..********..*******.**.
****.*.**..***.**..******
**.******.******..*****.*
.********.*************..

Generation = 1, Population = 36.
****...............***..*
...*.....................
.........................
.........................
........................*
........................*
............*..........*.
.........................
*.......................*
.........................
*......................*.
*.......................*
*.......................*
*........................
.........................
......***................
.........................
.........................
.........................
.........................
........................*
.........................
........................*
........................*
**......*.*.....**....**.

Generation = 2, Population = 20.
.***................*....
.*.*................*....
.........................
.........................
.........................
.......................**
.........................
.........................
.........................
.........................
.........................
**.....................**
**.......................
.........................
.......*.................
.......*.................
.......*.................
.........................
.........................
.........................
.........................
.........................
.........................
........................*
.......................*.

Generation = 3, Population = 11.
.*.*.....................
.*.*.....................
.........................
.........................
.........................
.........................
.........................
.........................
.........................
.........................
.........................
**.......................
**.......................
.........................
.........................
......***................
.........................
.........................
.........................
.........................
.........................
.........................
.........................
.........................
.........................

Generation = 4, Population = 7.
.........................
.........................
.........................
.........................
.........................
.........................
.........................
.........................
.........................
.........................
.........................
**.......................
**.......................
.........................
.......*.................
.......*.................
.......*.................
.........................
.........................
.........................
.........................
.........................
.........................
.........................
.........................

